    200 /lib64/ld-linux-x86-64.so.2
    24c _~$(
    499 __gmon_start__
    4a8 libc.so.6
    4b2 exit
    4b7 srand
    4bd __strdup
    4c6 perror
    4cd signal
    4d4 puts
    4d9 memalign
    4e2 stdin
    4e8 printf
    4ef memset
    4f6 getopt
    4fd mprotect
    506 __ctype_b_loc
    514 optarg
    51b alarm
    521 srandom
    529 _IO_getc
    532 __libc_start_main
    544 GLIBC_2.3
    54e GLIBC_2.2.5
    998 <gtd
    c14 fff.
    cc9 ATUH
    ccf StrE1
    d63 @A\H
    d72 A]A^
    e41 w];=g
    e49 u5Hc
    ef6 (vGH
   10f2 fffff.
   1287 l$ L
   128c t$(L
   1291 |$0H
   12c0 Usage: %s -u username
   12d7 Better luck next time
   12ed Keep going
   12f8 Level %d VALID
   1308 Dud: getbuf returned 0x%llx
   1325 Type Hex string: 
   1337 Type string: 
   1345 Smoke!: You called smoke()
   1360 Username: %s
   136e Cookie: 0x%llx
   137e gt:u:
   1388 	-u username:   Specify username
   13b0 Oops!: You executed an illegal instruction
   13e0 Dead!: getbuf didn't complete within %d seconds
   1418 Ouch!: You caused a segmentation fault!
   1440 Crash!: You caused a bus error!
   1460 No username indicated.  Results not validated
   1490 Invalid level.  Results not validated
   14b8 Improper call to validate function.  Results not validated
   14f8 Sabotaged!: the stack has been corrupted
   1528 Boom!: getbuf returned 0x%llx
   1548 Bang!: You set global_value to 0x%llx
   1570 Misfire: global_value = 0x%llx
   1590 Fizz!: You called fizz(0x%llx)
   15b0 Misfire: You called fizz(0x%llx)
   15d8 Failure to set stack permissions
   1600 You must include a username with -u
   1630 0123456789ABCDEF%x
   1747 ;*3$"
